%YAML 1.1
%TAG !u! tag:unity3d.com,2011:
--- !u!114 &11400000
MonoBehaviour:
  m_ObjectHideFlags: 0
  m_CorrespondingSourceObject: {fileID: 0}
  m_PrefabInstance: {fileID: 0}
  m_PrefabAsset: {fileID: 0}
  m_GameObject: {fileID: 0}
  m_Enabled: 1
  m_EditorHideFlags: 0
  m_Script: {fileID: 11500000, guid: abd3e853a04503e4eb39baad14d8e691, type: 3}
  m_Name: break_rope
  m_EditorClassIdentifier: 
  sampleType: 0
  clip: {fileID: 8300000, guid: 041ef9161d055a14ab9c171e9ec6e511, type: 3}
  volume: 0.8
