%YAML 1.1
%TAG !u! tag:unity3d.com,2011:
--- !u!114 &11400000
MonoBehaviour:
  m_ObjectHideFlags: 0
  m_CorrespondingSourceObject: {fileID: 0}
  m_PrefabInstance: {fileID: 0}
  m_PrefabAsset: {fileID: 0}
  m_GameObject: {fileID: 0}
  m_Enabled: 1
  m_EditorHideFlags: 0
  m_Script: {fileID: 11500000, guid: cf562644252b52d4d95583fef588b7de, type: 3}
  m_Name: Sounds Database
  m_EditorClassIdentifier: 
  serializationData:
    SerializedFormat: 2
    SerializedBytes: 
    ReferencedUnityObjects:
    - {fileID: 11400000, guid: b51cfe188d6aa5641b1c67fbbaa582ca, type: 2}
    - {fileID: 11400000, guid: d1d6eaeb95af6ca4da234afa402de8da, type: 2}
    - {fileID: 11400000, guid: 068885ed8f070644f856f16cfc33b917, type: 2}
    - {fileID: 11400000, guid: f1009d56e22b0ab488133b575c5816af, type: 2}
    - {fileID: 11400000, guid: 0468e604d3aa8824bbea0edd4d77daf6, type: 2}
    - {fileID: 11400000, guid: 375ccd0373493a044910520d57baa818, type: 2}
    - {fileID: 11400000, guid: c2fed878d89b5f240b4986c47b6c89a2, type: 2}
    - {fileID: 11400000, guid: 0a4456a4c5636264eba340a1b2b3b27d, type: 2}
    - {fileID: 11400000, guid: 3d43b2f77dddb7044b906ef27d5e3d97, type: 2}
    - {fileID: 11400000, guid: 5a6ba0e0ccf1c884ab9a9eb74482488a, type: 2}
    - {fileID: 11400000, guid: b40fb1dbba1679f4281e39b3b4ffe57e, type: 2}
    - {fileID: 11400000, guid: 3ffc65d7ed6042f449c65161d89cc5dd, type: 2}
    - {fileID: 11400000, guid: 6231b3b472c2d324ab11c3164212d197, type: 2}
    - {fileID: 11400000, guid: 18c00869ce7d88f4d8cebff69394c575, type: 2}
    SerializedBytesString: 
    Prefab: {fileID: 0}
    PrefabModificationsReferencedUnityObjects: []
    PrefabModifications: []
    SerializationNodes:
    - Name: soundsDictionaries
      Entry: 7
      Data: 0|System.Collections.Generic.Dictionary`2[[System.String, mscorlib],[SoundSample,
        Assembly-CSharp]], mscorlib
    - Name: comparer
      Entry: 7
      Data: 1|System.Collections.Generic.GenericEqualityComparer`1[[System.String,
        mscorlib]], mscorlib
    - Name: 
      Entry: 8
      Data: 
    - Name: 
      Entry: 12
      Data: 14
    - Name: 
      Entry: 7
      Data: 
    - Name: $k
      Entry: 1
      Data: MenuSoundtrack
    - Name: $v
      Entry: 10
      Data: 0
    - Name: 
      Entry: 8
      Data: 
    - Name: 
      Entry: 7
      Data: 
    - Name: $k
      Entry: 1
      Data: InGameSoundtrack
    - Name: $v
      Entry: 10
      Data: 1
    - Name: 
      Entry: 8
      Data: 
    - Name: 
      Entry: 7
      Data: 
    - Name: $k
      Entry: 1
      Data: Gas
    - Name: $v
      Entry: 10
      Data: 2
    - Name: 
      Entry: 8
      Data: 
    - Name: 
      Entry: 7
      Data: 
    - Name: $k
      Entry: 1
      Data: BreakGlass
    - Name: $v
      Entry: 10
      Data: 3
    - Name: 
      Entry: 8
      Data: 
    - Name: 
      Entry: 7
      Data: 
    - Name: $k
      Entry: 1
      Data: BreakCeramic
    - Name: $v
      Entry: 10
      Data: 4
    - Name: 
      Entry: 8
      Data: 
    - Name: 
      Entry: 7
      Data: 
    - Name: $k
      Entry: 1
      Data: BreakRope
    - Name: $v
      Entry: 10
      Data: 5
    - Name: 
      Entry: 8
      Data: 
    - Name: 
      Entry: 7
      Data: 
    - Name: $k
      Entry: 1
      Data: Muffin
    - Name: $v
      Entry: 10
      Data: 6
    - Name: 
      Entry: 8
      Data: 
    - Name: 
      Entry: 7
      Data: 
    - Name: $k
      Entry: 1
      Data: Cake
    - Name: $v
      Entry: 10
      Data: 7
    - Name: 
      Entry: 8
      Data: 
    - Name: 
      Entry: 7
      Data: 
    - Name: $k
      Entry: 1
      Data: HitBottle
    - Name: $v
      Entry: 10
      Data: 8
    - Name: 
      Entry: 8
      Data: 
    - Name: 
      Entry: 7
      Data: 
    - Name: $k
      Entry: 1
      Data: HitJar
    - Name: $v
      Entry: 10
      Data: 9
    - Name: 
      Entry: 8
      Data: 
    - Name: 
      Entry: 7
      Data: 
    - Name: $k
      Entry: 1
      Data: HitCup
    - Name: $v
      Entry: 10
      Data: 10
    - Name: 
      Entry: 8
      Data: 
    - Name: 
      Entry: 7
      Data: 
    - Name: $k
      Entry: 1
      Data: Knife
    - Name: $v
      Entry: 10
      Data: 11
    - Name: 
      Entry: 8
      Data: 
    - Name: 
      Entry: 7
      Data: 
    - Name: $k
      Entry: 1
      Data: KnifeCut
    - Name: $v
      Entry: 10
      Data: 12
    - Name: 
      Entry: 8
      Data: 
    - Name: 
      Entry: 7
      Data: 
    - Name: $k
      Entry: 1
      Data: ChoppingBoard
    - Name: $v
      Entry: 10
      Data: 13
    - Name: 
      Entry: 8
      Data: 
    - Name: 
      Entry: 13
      Data: 
    - Name: 
      Entry: 8
      Data: 
